Variants associated with Body Mass Index (BMI)
…
'risk_allele'.

We extract all these variables and combine them into one single dataframe (bmi_variants), using 'association_id' as the matching key:

tbl01 <- dplyr::select(bmi_associations@risk_alleles, association_id, variant_id, risk_allele)
tbl02 <- dplyr::select(bmi_associations@associations, association_id, pvalue, beta_number, beta_unit, beta_direction)

bmi_variants <- dplyr::left_join(tbl01, tbl02, by = 'association_id') %>%
  tidyr::drop_na() %>%
  dplyr::arrange(variant_id, risk_allele)

The final results show 42 associations. Note that some variant/allele combinations might be repeated as the same variant/allele combination might have been assessed in more than one GWAS study.

bmi_variants
#> # A tibble: 42 × 7
#>    association_id variant_id  risk_allele     pvalue beta_number beta_unit beta_direction
#>    <chr>          <chr>       <chr>            <dbl>       <dbl> <chr>     <chr>         
#>  1 10066323       rs10041997  A           0.0000004        0.138 unit      increase      
#>  2 61729722       rs10070777  A           0.000004         0.879 unit      increase      
#>  3 61729714       rs10278819  C           0.000002         0.873 unit      increase      
#>  4 61729787       rs10426669  G           0.000006         0.765 unit      increase      
#>  5 61729731       rs1048163   G           0.000005         0.450 unit      increase      
#>  6 61729771       rs1048164   A           0.000009         0.436 unit      increase      
#>  7 55309232       rs10515235  A           0.000002         0.05  unit      increase      
#>  8 55309249       rs10938397  G           0.00000003       0.06  unit      increase      
#>  9 61729763       rs112045010 C           0.000005         0.906 unit      increase      
#> 10 61729759       rs11979775  C           0.000005         0.501 unit      increase      
#> # … with 32 more rows
