Frequently asked questions
…
To search in multiple regions, construct your genomic range list with
those locations just like in the previous example. For example, let’s
search now for variants in chromosome X and Y, both in range
13000000–15000000:

my_genomic_range <- list(
  chromosome = c('X', 'Y'),
  start = c(13000000L, 13000000L),
  end = c(15000000L, 15000000L))

chr_XY_variants <- get_variants(genomic_range = my_genomic_range)
chr_XY_variants@variants[c('variant_id',
                           'chromosome_name',
                           'chromosome_position')]
#> # A tibble: 24 × 3
#>    variant_id  chromosome_name chromosome_position
#>    <chr>       <chr>                         <int>
#>  1 rs111689944 X                          13494655
#>  2 rs7063195   X                          13492087
#>  3 rs5978649   X                          13596999
#>  4 rs5934106   X                          13488259
#>  5 rs749624882 X                          14929148
#>  6 rs61273829  X                          14150876
#>  7 rs6528024   X                          13912803
#>  8 rs66819623  X                          13936278
#>  9 rs138331350 X                          14841981
#> 10 rs5980075   X                          14932409
#> # … with 14 more rows
…
How to know what are the cytogenetic bands for querying? We provide a
dataset (dataframe) named cytogenetic_bands that you can
use:

# ?cytogenetic_bands for more details.
cytogenetic_bands
#> # A tibble: 862 × 8
#>    cytogenetic_band chromosome    start      end  length assembly stain  last_download_date      
#>    <chr>            <chr>         <int>    <int>   <dbl> <chr>    <chr>  <chr>                   
#>  1 1p36.33          1                 1  2300000 2300000 GRCh38   gneg   Thu Jun 27 15:09:22 2019
#>  2 1p36.32          1           2300001  5300000 3000000 GRCh38   gpos25 Thu Jun 27 15:09:22 2019
#>  3 1p36.31          1           5300001  7100000 1800000 GRCh38   gneg   Thu Jun 27 15:09:22 2019
#>  4 1p36.23          1           7100001  9100000 2000000 GRCh38   gpos25 Thu Jun 27 15:09:22 2019
#>  5 1p36.22          1           9100001 12500000 3400000 GRCh38   gneg   Thu Jun 27 15:09:22 2019
#>  6 1p36.21          1          12500001 15900000 3400000 GRCh38   gpos50 Thu Jun 27 15:09:22 2019
#>  7 1p36.13          1          15900001 20100000 4200000 GRCh38   gneg   Thu Jun 27 15:09:22 2019
#>  8 1p36.12          1          20100001 23600000 3500000 GRCh38   gpos25 Thu Jun 27 15:09:22 2019
#>  9 1p36.11          1          23600001 27600000 4000000 GRCh38   gneg   Thu Jun 27 15:09:22 2019
#> 10 1p35.3           1          27600001 29900000 2300000 GRCh38   gpos25 Thu Jun 27 15:09:22 2019
#> # … with 852 more rows
…
Use set_operation = 'union' to combine results in an OR
fashion:

my_variants_OR <- get_variants(
  efo_trait = 'triple-negative breast cancer',
  gene_name = 'MDM4',
  set_operation = 'union')

my_variants_OR@variants[c('variant_id',
                       'chromosome_name',
                       'chromosome_position',
                       'chromosome_region')]
#> # A tibble: 56 × 4
#>    variant_id  chromosome_name chromosome_position chromosome_region
#>    <chr>       <chr>                         <int> <chr>            
#>  1 rs3747636   1                         204434531 1q32.1           
#>  2 rs10793765  1                         204580247 1q32.1           
#>  3 rs116661163 1                         204641544 1q32.1           
#>  4 rs12083887  1                         118339066 1p12             
#>  5 rs12143943  1                         204602943 1q32.1           
#>  6 rs1008833   1                         204457167 1q32.1           
#>  7 rs2137255   1                         204457245 1q32.1           
#>  8 rs2290854   1                         204546897 1q32.1           
#>  9 rs12036042  1                         204500186 1q32.1           
#> 10 rs3789045   1                         204617684 1q32.1           
#> # … with 46 more rows
…
In the following example, we will be using the gene name as the only
search criterion. If we pass a vector of gene names then we get all
variants that are associated with EITHER (OR) genes.

my_variants <- get_variants(gene_name = c('RNU6-367P', 'ABHD5'))
#> downloading [=======================================================================================] 100% eta: 0s
#> downloading [=======================================================================================] 100% eta: 0s

my_variants@variants[c('variant_id',
                       'chromosome_name',
                       'chromosome_position',
                       'chromosome_region')]
#> # A tibble: 33 × 4
#>    variant_id  chromosome_name chromosome_position chromosome_region
#>    <chr>       <chr>                         <int> <chr>            
#>  1 rs142242702 3                          44122660 3p21.32          
#>  2 rs1554654   3                          44002852 3p21.33          
#>  3 rs7619427   3                          44035549 3p21.33          
#>  4 rs11718455  3                          44015406 3p21.33          
#>  5 rs73076675  3                          43924731 3p21.33          
#>  6 rs113706999 3                          44117664 3p21.32          
#>  7 rs6441814   3                          44007622 3p21.33          
#>  8 rs4017425   3                          43987272 3p21.33          
#>  9 rs79644353  3                          44135707 3p21.32          
#> 10 rs7619544   3                          43852053 3p21.33          
#> # … with 23 more rows
…
There are 19 variants associated with gene RNU6-367P. Now, for gene
ABHD5:

my_variants2 <- get_variants(gene_name = 'ABHD5')
#> downloading [=========================================================>-----------------------------] 67% eta: 4s
#> downloading [=======================================================================================] 100% eta: 0s

my_variants2@variants[c('variant_id',
                       'chromosome_name',
                       'chromosome_position',
                       'chromosome_region')]
#> # A tibble: 23 × 4
#>    variant_id  chromosome_name chromosome_position chromosome_region
#>    <chr>       <chr>                         <int> <chr>            
#>  1 rs191867523 3                          43774449 3p21.33          
#>  2 rs115421670 3                          43737217 3p21.33          
#>  3 rs6772840   3                          43812828 3p21.33          
#>  4 rs11720728  3                          43832420 3p21.33          
#>  5 rs142404191 3                          43641812 3p21.33          
#>  6 rs192944990 3                          43826178 3p21.33          
#>  7 rs182923613 3                          43791731 3p21.33          
#>  8 rs73087085  3                          43687796 3p21.33          
#>  9 rs75594032  3                          43744082 3p21.33          
#> 10 rs1468602   3                          43701242 3p21.33          
#> # … with 13 more rows
…
